{
  "extends": "../../../tslint.json",
  "rules": {
    "directive-selector": [true, "attribute", "angular-scheduler", "camelCase"],
    "component-selector": [true, "element", "angular-scheduler", "kebab-case"]
  }
}
